Getting Started • sRm
…
meta(srmExpGroups)
#> # A tibble: 4 × 6
#>   sampleID                         sample_n Datestamp Timestamp Instrum…¹ Schema
#>   <chr>                               <int> <chr>     <chr>     <chr>     <chr> 
#> 1 free_biltong_210511_11052021_007        1 NA        NA        Shimadzu… http:…
#> 2 free_biltong_210511_11052021_008        2 NA        NA        Shimadzu… http:…
#> 3 free_biltong_210511_11052021_009        3 NA        NA        Shimadzu… http:…
#> 4 free_biltong_210511_11052021_010        4 NA        NA        Shimadzu… http:…
#> # … with abbreviated variable name ¹​Instrument

transitions(srmExpGroups)
#> # A tibble: 107 × 3
#>    transition        filter                                                index
#>    <chr>             <chr>                                                 <int>
#>  1 303 > 70.2 (+)    SRM SIC Q1=303 Q3=70.2 Channel=1 Event=1 Segment=1 C…     1
#>  2 303 > 156 (+)     SRM SIC Q1=303 Q3=156 Channel=2 Event=1 Segment=1 CE…     2
#>  3 303 > 286.2 (+)   SRM SIC Q1=303 Q3=286.2 Channel=3 Event=1 Segment=1 …     3
#>  4 317.1 > 84.15 (+) SRM SIC Q1=317.1 Q3=84.15 Channel=1 Event=2 Segment=…     4
#>  5 317.1 > 170.2 (+) SRM SIC Q1=317.1 Q3=170.2 Channel=2 Event=2 Segment=…     5
#>  6 317.1 > 128.1 (+) SRM SIC Q1=317.1 Q3=128.1 Channel=3 Event=2 Segment=…     6
#>  7 304.1 > 156.1 (+) SRM SIC Q1=304.1 Q3=156.1 Channel=1 Event=3 Segment=…     7
#>  8 304.1 > 113.1 (+) SRM SIC Q1=304.1 Q3=113.1 Channel=2 Event=3 Segment=…     8
#>  9 304.1 > 287.2 (+) SRM SIC Q1=304.1 Q3=287.2 Channel=3 Event=3 Segment=…     9
#> 10 234.1 > 216.2 (+) SRM SIC Q1=234.1 Q3=216.2 Channel=1 Event=4 Segment=…    10
#> # … with 97 more rows

peaks(srmExpGroups)
#> # A tibble: 2,197 × 12
#>    sampleID filter      rt rtmin rtmax    int   area     sn peakId trans…¹ index
#>    <chr>    <chr>    <dbl> <dbl> <dbl>  <dbl>  <dbl>  <dbl>  <dbl> <chr>   <int>
#>  1 QC01     SRM SIC…  5.00  4.62  6.21 395845 1.15e7     62      1 204 > …    30
#>  2 QC02     SRM SIC…  5.00  4.60  6.21 409379 1.17e7    111      1 204 > …    30
#>  3 QC02     SRM SIC…  6.95  6.87  6.99  12458 1.22e5  12457      2 204 > …    30
#>  4 QC02     SRM SIC…  6.50  6.37  6.70  18099 3.70e5  18098      3 204 > …    30
#>  5 QC03     SRM SIC…  5.00  4.58  6.21 398475 1.15e7     62      1 204 > …    30
#>  6 QC04     SRM SIC…  5.00  4.65  6.21 400348 1.18e7    250      1 204 > …    30
#>  7 QC04     SRM SIC…  6.46  6.37  6.62  19130 2.90e5  19129      2 204 > …    30
#>  8 QC01     SRM SIC…  5.00  4.65  6.17 361915 1.03e7    278      1 204 > …    29
#>  9 QC01     SRM SIC…  6.66  6.37  6.99  16279 5.69e5  16278      2 204 > …    29
#> 10 QC02     SRM SIC…  5.00  4.58  6.17 360968 1.03e7 360967      1 204 > …    29
#> # … with 2,187 more rows, 1 more variable: GroupID <chr>, and abbreviated
#> #   variable name ¹​transition

header(srmExpGroups)
#> # A tibble: 428 × 9
#>    sampleID filter                  tic    bpi polar…¹    Q1    Q3    CE trans…²
#>    <chr>    <chr>                 <dbl>  <dbl> <chr>   <dbl> <dbl> <dbl> <chr>  
#>  1 QC01     SRM SIC Q1=204 Q3=1… 6.36e6 3.96e5 +        204  118.     12 204 > …
#>  2 QC01     SRM SIC Q1=204 Q3=1… 5.90e6 3.62e5 +        204  144      10 204 > …
#>  3 QC01     SRM SIC Q1=204 Q3=1… 1.87e6 1.11e5 +        204  162      10 204 > …
#>  4 QC01     SRM SIC Q1=218.1 Q3… 4.95e7 5.63e6 +        218. 116      12 218.1 …
#>  5 QC01     SRM SIC Q1=218.1 Q3… 9.56e7 1.34e7 +        218. 130.     13 218.1 …
#>  6 QC01     SRM SIC Q1=218.1 Q3… 8.45e7 8.28e6 +        218. 158.      9 218.1 …
#>  7 QC01     SRM SIC Q1=218.1 Q3… 7.90e7 7.76e6 +        218. 158.     10 218.1 …
#>  8 QC01     SRM SIC Q1=218.1 Q3… 2.36e7 3.07e6 +        218.  88.1    19 218.1 …
#>  9 QC01     SRM SIC Q1=218.1 Q3… 2.36e7 3.16e6 +        218.  88.1    18 218.1 …
#> 10 QC01     SRM SIC Q1=233.1 Q3… 1.23e5 1.33e4 +        233. 130.     15 233.1 …
#> # … with 418 more rows, and abbreviated variable names ¹​polarity, ²​transition
…
